<?xml version="1.0" encoding="UTF-8" standalone="no"?>
<!-- Created with Inkscape (http://www.inkscape.org/) -->

<svg
   xmlns:dc="http://purl.org/dc/elements/1.1/"
   xmlns:cc="http://creativecommons.org/ns#"
   xmlns:rdf="http://www.w3.org/1999/02/22-rdf-syntax-ns#"
   xmlns:svg="http://www.w3.org/2000/svg"
   xmlns="http://www.w3.org/2000/svg"
   xmlns:xlink="http://www.w3.org/1999/xlink"
   xmlns:sodipodi="http://sodipodi.sourceforge.net/DTD/sodipodi-0.dtd"
   xmlns:inkscape="http://www.inkscape.org/namespaces/inkscape"
   width="128"
   height="128"
   viewBox="0 0 33.866666 33.866668"
   version="1.1"
   id="svg8"
   inkscape:version="0.92.5 (2060ec1f9f, 2020-04-08)"
   sodipodi:docname="icon.svg"
   inkscape:export-filename="./icon.png"
   inkscape:export-xdpi="96"
   inkscape:export-ydpi="96">
  <defs
     id="defs2">
    <linearGradient
       id="linearGradient938"
       inkscape:collect="always">
      <stop
         id="stop934"
         offset="0"
         style="stop-color:#f3dd6c;stop-opacity:1;" />
      <stop
         style="stop-color:#fff9a3;stop-opacity:1"
         offset="0.34335515"
         id="stop940" />
      <stop
         id="stop936"
         offset="1"
         style="stop-color:#d9be5d;stop-opacity:1" />
    </linearGradient>
    <linearGradient
       inkscape:collect="always"
       id="linearGradient884">
      <stop
         style="stop-color:#517e00;stop-opacity:1;"
         offset="0"
         id="stop880" />
      <stop
         style="stop-color:#517e00;stop-opacity:0;"
         offset="1"
         id="stop882" />
    </linearGradient>
    <linearGradient
       inkscape:collect="always"
       id="linearGradient844">
      <stop
         style="stop-color:#000000;stop-opacity:1;"
         offset="0"
         id="stop840" />
      <stop
         style="stop-color:#000000;stop-opacity:0;"
         offset="1"
         id="stop842" />
    </linearGradient>
    <radialGradient
       inkscape:collect="always"
       xlink:href="#linearGradient884"
       id="radialGradient886"
       cx="16.933332"
       cy="280.06665"
       fx="16.933332"
       fy="280.06665"
       r="16.933332"
       gradientUnits="userSpaceOnUse" />
    <linearGradient
       inkscape:collect="always"
       xlink:href="#linearGradient844"
       id="linearGradient914"
       gradientUnits="userSpaceOnUse"
       x1="76.979897"
       y1="130.52243"
       x2="99.71743"
       y2="83.318459" />
    <linearGradient
       inkscape:collect="always"
       xlink:href="#linearGradient938"
       id="linearGradient932"
       x1="90.670032"
       y1="154.83693"
       x2="116.94005"
       y2="154.83693"
       gradientUnits="userSpaceOnUse" />
    <linearGradient
       inkscape:collect="always"
       xlink:href="#linearGradient938"
       id="linearGradient942"
       gradientUnits="userSpaceOnUse"
       x1="64.664597"
       y1="141.59572"
       x2="90.934616"
       y2="141.59572" />
    <linearGradient
       inkscape:collect="always"
       xlink:href="#linearGradient938"
       id="linearGradient944"
       gradientUnits="userSpaceOnUse"
       x1="38.659161"
       y1="128.48782"
       x2="64.929176"
       y2="128.48782" />
    <linearGradient
       inkscape:collect="always"
       xlink:href="#linearGradient938"
       id="linearGradient946"
       gradientUnits="userSpaceOnUse"
       x1="12.653724"
       y1="115.43478"
       x2="38.923744"
       y2="115.43478" />
  </defs>
  <sodipodi:namedview
     id="base"
     pagecolor="#ffffff"
     bordercolor="#666666"
     borderopacity="1.0"
     inkscape:pageopacity="0.0"
     inkscape:pageshadow="2"
     inkscape:zoom="1"
     inkscape:cx="32.730728"
     inkscape:cy="143.82957"
     inkscape:document-units="mm"
     inkscape:current-layer="layer1"
     showgrid="false"
     inkscape:snap-global="false"
     units="px"
     inkscape:snap-page="true"
     inkscape:pagecheckerboard="true"
     inkscape:window-width="1920"
     inkscape:window-height="1061"
     inkscape:window-x="0"
     inkscape:window-y="0"
     inkscape:window-maximized="1" />
  <metadata
     id="metadata5">
    <rdf:RDF>
      <cc:Work
         rdf:about="">
        <dc:format>image/svg+xml</dc:format>
        <dc:type
           rdf:resource="http://purl.org/dc/dcmitype/StillImage" />
        <dc:title></dc:title>
      </cc:Work>
    </rdf:RDF>
  </metadata>
  <g
     inkscape:label="Layer 1"
     inkscape:groupmode="layer"
     id="layer1"
     transform="translate(0,-263.13332)">
    <circle
       style="opacity:1;vector-effect:none;fill:url(#radialGradient886);fill-opacity:1;fill-rule:evenodd;stroke:none;stroke-width:0.26458332;stroke-linecap:butt;stroke-linejoin:round;stroke-miterlimit:4;stroke-dasharray:none;stroke-dashoffset:20.7874012;stroke-opacity:1"
       id="path878"
       cx="16.933332"
       cy="280.06665"
       r="16.933332" />
    <path
       style="fill:#433719;stroke:#000000;stroke-width:0.26458332px;stroke-linecap:butt;stroke-linejoin:miter;stroke-opacity:1;fill-opacity:1"
       d="m 6.8791666,289.39322 1.3663567,5.09931 H 25.664583 l 1.45056,-5.41357 z"
       id="path918"
       inkscape:connector-curvature="0" />
    <g
       id="g902"
       transform="matrix(0.95746976,0,0,0.95746976,-0.47273885,9.4937625)">
      <g
         transform="matrix(0.12069496,0,0,0.10159866,17.087619,265.07702)"
         id="g862">
        <path
           style="fill:url(#linearGradient932);fill-opacity:1;stroke:#000000;stroke-width:0.26458332px;stroke-linecap:butt;stroke-linejoin:miter;stroke-opacity:1"
           d="m 90.802324,110.19426 c 0,-10.18546 1.083559,-32.940222 8.451768,-32.940222 7.368208,0 17.553668,36.407612 17.553668,46.159652 V 232.41982 H 90.802324 Z"
           id="path815"
           inkscape:connector-curvature="0"
           sodipodi:nodetypes="cssccc" />
        <path
           sodipodi:nodetypes="cssccc"
           inkscape:connector-curvature="0"
           id="path817"
           d="m 64.796888,83.711836 c 0,-10.18546 1.083559,-32.940222 8.451768,-32.940222 7.368208,0 17.553668,36.407612 17.553668,46.159652 V 232.41982 H 64.796888 Z"
           style="fill:url(#linearGradient942);fill-opacity:1;stroke:#000000;stroke-width:0.26458332px;stroke-linecap:butt;stroke-linejoin:miter;stroke-opacity:1" />
        <path
           style="fill:url(#linearGradient944);fill-opacity:1;stroke:#000000;stroke-width:0.26458332px;stroke-linecap:butt;stroke-linejoin:miter;stroke-opacity:1"
           d="m 38.791452,57.496064 c 0,-10.18546 1.083559,-32.940222 8.451768,-32.940222 7.368208,0 17.553668,36.407612 17.553668,46.159652 V 232.41982 H 38.791452 Z"
           id="path819"
           inkscape:connector-curvature="0"
           sodipodi:nodetypes="cssccc" />
        <path
           sodipodi:nodetypes="cssccc"
           inkscape:connector-curvature="0"
           id="path821"
           d="m 12.786016,31.38997 c 0,-10.18546 1.083559,-32.9402226 8.451768,-32.9402226 7.368208,0 17.553668,36.4076126 17.553668,46.1596526 V 232.41982 H 12.786016 Z"
           style="fill:url(#linearGradient946);fill-opacity:1;stroke:#000000;stroke-width:0.26458332px;stroke-linecap:butt;stroke-linejoin:miter;stroke-opacity:1" />
        <path
           transform="matrix(1,0,0.18400444,0.98292541,0,0)"
           style="opacity:1;vector-effect:none;fill:url(#linearGradient914);fill-opacity:1;fill-rule:evenodd;stroke:none;stroke-width:0.18985686;stroke-linecap:butt;stroke-linejoin:round;stroke-miterlimit:4;stroke-dasharray:none;stroke-dashoffset:20.7874012;stroke-opacity:1"
           inkscape:transform-center-x="-6.5242301"
           inkscape:transform-center-y="0.90604307"
           d="m 91.170154,103.11368 c 0.333097,11.57953 -1.34887,21.0859 -6.401065,21.0859 -4.727127,0 -6.969546,-8.11762 -6.401066,-21.0859 0.514157,-11.729058 2.865855,-21.085902 6.401066,-21.085901 3.426855,1e-6 6.199259,14.070487 6.401065,21.085901 z"
           id="path837"
           inkscape:connector-curvature="0"
           sodipodi:nodetypes="sssss" />
        <use
           x="0"
           y="0"
           xlink:href="#path837"
           inkscape:transform-center-x="-6.5242301"
           inkscape:transform-center-y="0.90604307"
           id="use848"
           transform="translate(-26.722917,-26.9875)"
           width="100%"
           height="100%" />
        <use
           height="100%"
           width="100%"
           transform="translate(-52.3875,-52.652083)"
           id="use850"
           inkscape:transform-center-y="0.90604307"
           inkscape:transform-center-x="-6.5242301"
           xlink:href="#path837"
           y="0"
           x="0" />
        <use
           x="0"
           y="0"
           xlink:href="#path837"
           inkscape:transform-center-x="-6.5242301"
           inkscape:transform-center-y="0.90604307"
           id="use852"
           transform="translate(-78.316667,-78.845833)"
           width="100%"
           height="100%" />
      </g>
      <use
         height="100%"
         width="100%"
         transform="matrix(-1,0,0,1,36.358479,-9.6657433e-8)"
         id="use864"
         xlink:href="#g862"
         y="0"
         x="0" />
    </g>
    <path
       style="fill:#7e6930;stroke:#000000;stroke-width:0.26458332px;stroke-linecap:butt;stroke-linejoin:miter;stroke-opacity:1;fill-opacity:1"
       d="m 4.1671874,285.55676 -1.3574095,2.3511 0.3652221,1.68379 h 27.516666 l 0.463021,-1.85208 -1.521354,-2.38125 v -2.64583 H 4.1010416 Z"
       id="path916"
       inkscape:connector-curvature="0" />
  </g>
</svg>
